5-17 Markdown
…
5-17 Markdown

Original data output by experiment. Correct: Participant made the correct (1) prediction or wrong (0) prediction winner: which horse won (1 or 2) hi/lo: high-calibrated vs low-calibrated advisor Conf: high confidence prediction (1) vs low confidence prediction (0) Rslt: advisor made the correct (1) prediction or wrong (0) prediction

## # A tibble: 4,350 x 10
##    subID trialNum cntBalance correct    rt winner hiConf loConf hiRslt loRslt
##    <chr>    <int> <chr>        <int> <dbl>  <int>  <int>  <int>  <int>  <int>
##  1 0uk          1 L                1  4981      1      1      1      1      1
##  2 0uk          2 L                1  3162      2      1      1      1      1
##  3 0uk          3 L                0  2632      1      1      1      1      0
##  4 0uk          4 L                1  1705      2      1      0      1      0
##  5 0uk          5 L                1  1734      2      1      0      1      1
##  6 0uk          6 L                0  1558      2      1      1      1      0
##  7 0uk          7 L                0  3964      2      0      0      0      0
##  8 0uk          8 L                1  1960      2      0      1      1      1
##  9 0uk          9 L                0  1221      1      0      1      1      0
## 10 0uk         10 L                0  1822      1      1      0      0      1
## # ... with 4,340 more rows
…
